{
  "name": "dx-blog:web",
  "version": "0.11.0",
  "released": "2024-12-09",
  "created": "2018-09-12",
  "source": "https://gitlab.com/drad/grava",
  "issues": "https://gitlab.com/drad/grava",
  "authors": ["drad"]
}
